^C:\USERS\ESTERA\DOWNLOADS\FRAMEWORK-EGC-MASTER\SOURCE\COMPONENT\CAMERAINPUT.CPP
/c /Zi /JMC /nologo /W3 /WX- /diagnostics:classic /sdl /Od /D _CRT_SECURE_NO_WARNINGS /D _DEBUG /D _CONSOLE /D _UNICODE /D UNICODE /Gm- /EHsc /RTC1 /MDd /GS /fp:precise /Zc:wchar_t /Zc:forScope /Zc:inline /Fo"OBJ\X64\DEBUG\FRAMEWORK_EGC\\" /Fd"OBJ\X64\DEBUG\FRAMEWORK_EGC\VC141.PDB" /Gd /TP /FC C:\USERS\ESTERA\DOWNLOADS\FRAMEWORK-EGC-MASTER\SOURCE\COMPONENT\CAMERAINPUT.CPP
^C:\USERS\ESTERA\DOWNLOADS\FRAMEWORK-EGC-MASTER\SOURCE\COMPONENT\SCENEINPUT.CPP
/c /Zi /JMC /nologo /W3 /WX- /diagnostics:classic /sdl /Od /D _CRT_SECURE_NO_WARNINGS /D _DEBUG /D _CONSOLE /D _UNICODE /D UNICODE /Gm- /EHsc /RTC1 /MDd /GS /fp:precise /Zc:wchar_t /Zc:forScope /Zc:inline /Fo"OBJ\X64\DEBUG\FRAMEWORK_EGC\\" /Fd"OBJ\X64\DEBUG\FRAMEWORK_EGC\VC141.PDB" /Gd /TP /FC C:\USERS\ESTERA\DOWNLOADS\FRAMEWORK-EGC-MASTER\SOURCE\COMPONENT\SCENEINPUT.CPP
^C:\USERS\ESTERA\DOWNLOADS\FRAMEWORK-EGC-MASTER\SOURCE\COMPONENT\SIMPLESCENE.CPP
/c /Zi /JMC /nologo /W3 /WX- /diagnostics:classic /sdl /Od /D _CRT_SECURE_NO_WARNINGS /D _DEBUG /D _CONSOLE /D _UNICODE /D UNICODE /Gm- /EHsc /RTC1 /MDd /GS /fp:precise /Zc:wchar_t /Zc:forScope /Zc:inline /Fo"OBJ\X64\DEBUG\FRAMEWORK_EGC\\" /Fd"OBJ\X64\DEBUG\FRAMEWORK_EGC\VC141.PDB" /Gd /TP /FC C:\USERS\ESTERA\DOWNLOADS\FRAMEWORK-EGC-MASTER\SOURCE\COMPONENT\SIMPLESCENE.CPP
^C:\USERS\ESTERA\DOWNLOADS\FRAMEWORK-EGC-MASTER\SOURCE\CORE\ENGINE.CPP
/c /Zi /JMC /nologo /W3 /WX- /diagnostics:classic /sdl /Od /D _CRT_SECURE_NO_WARNINGS /D _DEBUG /D _CONSOLE /D _UNICODE /D UNICODE /Gm- /EHsc /RTC1 /MDd /GS /fp:precise /Zc:wchar_t /Zc:forScope /Zc:inline /Fo"OBJ\X64\DEBUG\FRAMEWORK_EGC\\" /Fd"OBJ\X64\DEBUG\FRAMEWORK_EGC\VC141.PDB" /Gd /TP /FC C:\USERS\ESTERA\DOWNLOADS\FRAMEWORK-EGC-MASTER\SOURCE\CORE\ENGINE.CPP
^C:\USERS\ESTERA\DOWNLOADS\FRAMEWORK-EGC-MASTER\SOURCE\CORE\GPU\GPUBUFFERS.CPP
/c /Zi /JMC /nologo /W3 /WX- /diagnostics:classic /sdl /Od /D _CRT_SECURE_NO_WARNINGS /D _DEBUG /D _CONSOLE /D _UNICODE /D UNICODE /Gm- /EHsc /RTC1 /MDd /GS /fp:precise /Zc:wchar_t /Zc:forScope /Zc:inline /Fo"OBJ\X64\DEBUG\FRAMEWORK_EGC\\" /Fd"OBJ\X64\DEBUG\FRAMEWORK_EGC\VC141.PDB" /Gd /TP /FC C:\USERS\ESTERA\DOWNLOADS\FRAMEWORK-EGC-MASTER\SOURCE\CORE\GPU\GPUBUFFERS.CPP
^C:\USERS\ESTERA\DOWNLOADS\FRAMEWORK-EGC-MASTER\SOURCE\CORE\GPU\MESH.CPP
/c /Zi /JMC /nologo /W3 /WX- /diagnostics:classic /sdl /Od /D _CRT_SECURE_NO_WARNINGS /D _DEBUG /D _CONSOLE /D _UNICODE /D UNICODE /Gm- /EHsc /RTC1 /MDd /GS /fp:precise /Zc:wchar_t /Zc:forScope /Zc:inline /Fo"OBJ\X64\DEBUG\FRAMEWORK_EGC\\" /Fd"OBJ\X64\DEBUG\FRAMEWORK_EGC\VC141.PDB" /Gd /TP /FC C:\USERS\ESTERA\DOWNLOADS\FRAMEWORK-EGC-MASTER\SOURCE\CORE\GPU\MESH.CPP
^C:\USERS\ESTERA\DOWNLOADS\FRAMEWORK-EGC-MASTER\SOURCE\CORE\GPU\SHADER.CPP
/c /Zi /JMC /nologo /W3 /WX- /diagnostics:classic /sdl /Od /D _CRT_SECURE_NO_WARNINGS /D _DEBUG /D _CONSOLE /D _UNICODE /D UNICODE /Gm- /EHsc /RTC1 /MDd /GS /fp:precise /Zc:wchar_t /Zc:forScope /Zc:inline /Fo"OBJ\X64\DEBUG\FRAMEWORK_EGC\\" /Fd"OBJ\X64\DEBUG\FRAMEWORK_EGC\VC141.PDB" /Gd /TP /FC C:\USERS\ESTERA\DOWNLOADS\FRAMEWORK-EGC-MASTER\SOURCE\CORE\GPU\SHADER.CPP
^C:\USERS\ESTERA\DOWNLOADS\FRAMEWORK-EGC-MASTER\SOURCE\CORE\GPU\TEXTURE2D.CPP
/c /Zi /JMC /nologo /W3 /WX- /diagnostics:classic /sdl /Od /D _CRT_SECURE_NO_WARNINGS /D _DEBUG /D _CONSOLE /D _UNICODE /D UNICODE /Gm- /EHsc /RTC1 /MDd /GS /fp:precise /Zc:wchar_t /Zc:forScope /Zc:inline /Fo"OBJ\X64\DEBUG\FRAMEWORK_EGC\\" /Fd"OBJ\X64\DEBUG\FRAMEWORK_EGC\VC141.PDB" /Gd /TP /FC C:\USERS\ESTERA\DOWNLOADS\FRAMEWORK-EGC-MASTER\SOURCE\CORE\GPU\TEXTURE2D.CPP
^C:\USERS\ESTERA\DOWNLOADS\FRAMEWORK-EGC-MASTER\SOURCE\CORE\MANAGERS\TEXTUREMANAGER.CPP
/c /Zi /JMC /nologo /W3 /WX- /diagnostics:classic /sdl /Od /D _CRT_SECURE_NO_WARNINGS /D _DEBUG /D _CONSOLE /D _UNICODE /D UNICODE /Gm- /EHsc /RTC1 /MDd /GS /fp:precise /Zc:wchar_t /Zc:forScope /Zc:inline /Fo"OBJ\X64\DEBUG\FRAMEWORK_EGC\\" /Fd"OBJ\X64\DEBUG\FRAMEWORK_EGC\VC141.PDB" /Gd /TP /FC C:\USERS\ESTERA\DOWNLOADS\FRAMEWORK-EGC-MASTER\SOURCE\CORE\MANAGERS\TEXTUREMANAGER.CPP
^C:\USERS\ESTERA\DOWNLOADS\FRAMEWORK-EGC-MASTER\SOURCE\CORE\WINDOW\INPUTCONTROLLER.CPP
/c /Zi /JMC /nologo /W3 /WX- /diagnostics:classic /sdl /Od /D _CRT_SECURE_NO_WARNINGS /D _DEBUG /D _CONSOLE /D _UNICODE /D UNICODE /Gm- /EHsc /RTC1 /MDd /GS /fp:precise /Zc:wchar_t /Zc:forScope /Zc:inline /Fo"OBJ\X64\DEBUG\FRAMEWORK_EGC\\" /Fd"OBJ\X64\DEBUG\FRAMEWORK_EGC\VC141.PDB" /Gd /TP /FC C:\USERS\ESTERA\DOWNLOADS\FRAMEWORK-EGC-MASTER\SOURCE\CORE\WINDOW\INPUTCONTROLLER.CPP
^C:\USERS\ESTERA\DOWNLOADS\FRAMEWORK-EGC-MASTER\SOURCE\CORE\WINDOW\WINDOWCALLBACKS.CPP
/c /Zi /JMC /nologo /W3 /WX- /diagnostics:classic /sdl /Od /D _CRT_SECURE_NO_WARNINGS /D _DEBUG /D _CONSOLE /D _UNICODE /D UNICODE /Gm- /EHsc /RTC1 /MDd /GS /fp:precise /Zc:wchar_t /Zc:forScope /Zc:inline /Fo"OBJ\X64\DEBUG\FRAMEWORK_EGC\\" /Fd"OBJ\X64\DEBUG\FRAMEWORK_EGC\VC141.PDB" /Gd /TP /FC C:\USERS\ESTERA\DOWNLOADS\FRAMEWORK-EGC-MASTER\SOURCE\CORE\WINDOW\WINDOWCALLBACKS.CPP
^C:\USERS\ESTERA\DOWNLOADS\FRAMEWORK-EGC-MASTER\SOURCE\CORE\WINDOW\WINDOWOBJECT.CPP
/c /Zi /JMC /nologo /W3 /WX- /diagnostics:classic /sdl /Od /D _CRT_SECURE_NO_WARNINGS /D _DEBUG /D _CONSOLE /D _UNICODE /D UNICODE /Gm- /EHsc /RTC1 /MDd /GS /fp:precise /Zc:wchar_t /Zc:forScope /Zc:inline /Fo"OBJ\X64\DEBUG\FRAMEWORK_EGC\\" /Fd"OBJ\X64\DEBUG\FRAMEWORK_EGC\VC141.PDB" /Gd /TP /FC C:\USERS\ESTERA\DOWNLOADS\FRAMEWORK-EGC-MASTER\SOURCE\CORE\WINDOW\WINDOWOBJECT.CPP
^C:\USERS\ESTERA\DOWNLOADS\FRAMEWORK-EGC-MASTER\SOURCE\CORE\WORLD.CPP
/c /Zi /JMC /nologo /W3 /WX- /diagnostics:classic /sdl /Od /D _CRT_SECURE_NO_WARNINGS /D _DEBUG /D _CONSOLE /D _UNICODE /D UNICODE /Gm- /EHsc /RTC1 /MDd /GS /fp:precise /Zc:wchar_t /Zc:forScope /Zc:inline /Fo"OBJ\X64\DEBUG\FRAMEWORK_EGC\\" /Fd"OBJ\X64\DEBUG\FRAMEWORK_EGC\VC141.PDB" /Gd /TP /FC C:\USERS\ESTERA\DOWNLOADS\FRAMEWORK-EGC-MASTER\SOURCE\CORE\WORLD.CPP
^C:\USERS\ESTERA\DOWNLOADS\FRAMEWORK-EGC-MASTER\SOURCE\LABORATOARE\LABORATOR1\LABORATOR1.CPP
/c /Zi /JMC /nologo /W3 /WX- /diagnostics:classic /sdl /Od /D _CRT_SECURE_NO_WARNINGS /D _DEBUG /D _CONSOLE /D _UNICODE /D UNICODE /Gm- /EHsc /RTC1 /MDd /GS /fp:precise /Zc:wchar_t /Zc:forScope /Zc:inline /Fo"OBJ\X64\DEBUG\FRAMEWORK_EGC\\" /Fd"OBJ\X64\DEBUG\FRAMEWORK_EGC\VC141.PDB" /Gd /TP /FC C:\USERS\ESTERA\DOWNLOADS\FRAMEWORK-EGC-MASTER\SOURCE\LABORATOARE\LABORATOR1\LABORATOR1.CPP
^C:\USERS\ESTERA\DOWNLOADS\FRAMEWORK-EGC-MASTER\SOURCE\LABORATOARE\LABORATOR2\LABORATOR2.CPP
/c /Zi /JMC /nologo /W3 /WX- /diagnostics:classic /sdl /Od /D _CRT_SECURE_NO_WARNINGS /D _DEBUG /D _CONSOLE /D _UNICODE /D UNICODE /Gm- /EHsc /RTC1 /MDd /GS /fp:precise /Zc:wchar_t /Zc:forScope /Zc:inline /Fo"OBJ\X64\DEBUG\FRAMEWORK_EGC\\" /Fd"OBJ\X64\DEBUG\FRAMEWORK_EGC\VC141.PDB" /Gd /TP /FC C:\USERS\ESTERA\DOWNLOADS\FRAMEWORK-EGC-MASTER\SOURCE\LABORATOARE\LABORATOR2\LABORATOR2.CPP
^C:\USERS\ESTERA\DOWNLOADS\FRAMEWORK-EGC-MASTER\SOURCE\LABORATOARE\LABORATOR3\LABORATOR3.CPP
/c /Zi /JMC /nologo /W3 /WX- /diagnostics:classic /sdl /Od /D _CRT_SECURE_NO_WARNINGS /D _DEBUG /D _CONSOLE /D _UNICODE /D UNICODE /Gm- /EHsc /RTC1 /MDd /GS /fp:precise /Zc:wchar_t /Zc:forScope /Zc:inline /Fo"OBJ\X64\DEBUG\FRAMEWORK_EGC\\" /Fd"OBJ\X64\DEBUG\FRAMEWORK_EGC\VC141.PDB" /Gd /TP /FC C:\USERS\ESTERA\DOWNLOADS\FRAMEWORK-EGC-MASTER\SOURCE\LABORATOARE\LABORATOR3\LABORATOR3.CPP
^C:\USERS\ESTERA\DOWNLOADS\FRAMEWORK-EGC-MASTER\SOURCE\LABORATOARE\LABORATOR3\LABORATOR3_VIS2D.CPP
/c /Zi /JMC /nologo /W3 /WX- /diagnostics:classic /sdl /Od /D _CRT_SECURE_NO_WARNINGS /D _DEBUG /D _CONSOLE /D _UNICODE /D UNICODE /Gm- /EHsc /RTC1 /MDd /GS /fp:precise /Zc:wchar_t /Zc:forScope /Zc:inline /Fo"OBJ\X64\DEBUG\FRAMEWORK_EGC\\" /Fd"OBJ\X64\DEBUG\FRAMEWORK_EGC\VC141.PDB" /Gd /TP /FC C:\USERS\ESTERA\DOWNLOADS\FRAMEWORK-EGC-MASTER\SOURCE\LABORATOARE\LABORATOR3\LABORATOR3_VIS2D.CPP
^C:\USERS\ESTERA\DOWNLOADS\FRAMEWORK-EGC-MASTER\SOURCE\LABORATOARE\LABORATOR3\OBJECT2D.CPP
/c /Zi /JMC /nologo /W3 /WX- /diagnostics:classic /sdl /Od /D _CRT_SECURE_NO_WARNINGS /D _DEBUG /D _CONSOLE /D _UNICODE /D UNICODE /Gm- /EHsc /RTC1 /MDd /GS /fp:precise /Zc:wchar_t /Zc:forScope /Zc:inline /Fo"OBJ\X64\DEBUG\FRAMEWORK_EGC\\" /Fd"OBJ\X64\DEBUG\FRAMEWORK_EGC\VC141.PDB" /Gd /TP /FC C:\USERS\ESTERA\DOWNLOADS\FRAMEWORK-EGC-MASTER\SOURCE\LABORATOARE\LABORATOR3\OBJECT2D.CPP
^C:\USERS\ESTERA\DOWNLOADS\FRAMEWORK-EGC-MASTER\SOURCE\LABORATOARE\LABORATOR4\LABORATOR4.CPP
/c /Zi /JMC /nologo /W3 /WX- /diagnostics:classic /sdl /Od /D _CRT_SECURE_NO_WARNINGS /D _DEBUG /D _CONSOLE /D _UNICODE /D UNICODE /Gm- /EHsc /RTC1 /MDd /GS /fp:precise /Zc:wchar_t /Zc:forScope /Zc:inline /Fo"OBJ\X64\DEBUG\FRAMEWORK_EGC\\" /Fd"OBJ\X64\DEBUG\FRAMEWORK_EGC\VC141.PDB" /Gd /TP /FC C:\USERS\ESTERA\DOWNLOADS\FRAMEWORK-EGC-MASTER\SOURCE\LABORATOARE\LABORATOR4\LABORATOR4.CPP
^C:\USERS\ESTERA\DOWNLOADS\FRAMEWORK-EGC-MASTER\SOURCE\LABORATOARE\LABORATOR5\LABORATOR5.CPP
/c /Zi /JMC /nologo /W3 /WX- /diagnostics:classic /sdl /Od /D _CRT_SECURE_NO_WARNINGS /D _DEBUG /D _CONSOLE /D _UNICODE /D UNICODE /Gm- /EHsc /RTC1 /MDd /GS /fp:precise /Zc:wchar_t /Zc:forScope /Zc:inline /Fo"OBJ\X64\DEBUG\FRAMEWORK_EGC\\" /Fd"OBJ\X64\DEBUG\FRAMEWORK_EGC\VC141.PDB" /Gd /TP /FC C:\USERS\ESTERA\DOWNLOADS\FRAMEWORK-EGC-MASTER\SOURCE\LABORATOARE\LABORATOR5\LABORATOR5.CPP
^C:\USERS\ESTERA\DOWNLOADS\FRAMEWORK-EGC-MASTER\SOURCE\LABORATOARE\LABORATOR6\LABORATOR6.CPP
/c /Zi /JMC /nologo /W3 /WX- /diagnostics:classic /sdl /Od /D _CRT_SECURE_NO_WARNINGS /D _DEBUG /D _CONSOLE /D _UNICODE /D UNICODE /Gm- /EHsc /RTC1 /MDd /GS /fp:precise /Zc:wchar_t /Zc:forScope /Zc:inline /Fo"OBJ\X64\DEBUG\FRAMEWORK_EGC\\" /Fd"OBJ\X64\DEBUG\FRAMEWORK_EGC\VC141.PDB" /Gd /TP /FC C:\USERS\ESTERA\DOWNLOADS\FRAMEWORK-EGC-MASTER\SOURCE\LABORATOARE\LABORATOR6\LABORATOR6.CPP
^C:\USERS\ESTERA\DOWNLOADS\FRAMEWORK-EGC-MASTER\SOURCE\LABORATOARE\LABORATOR7\LABORATOR7.CPP
/c /Zi /JMC /nologo /W3 /WX- /diagnostics:classic /sdl /Od /D _CRT_SECURE_NO_WARNINGS /D _DEBUG /D _CONSOLE /D _UNICODE /D UNICODE /Gm- /EHsc /RTC1 /MDd /GS /fp:precise /Zc:wchar_t /Zc:forScope /Zc:inline /Fo"OBJ\X64\DEBUG\FRAMEWORK_EGC\\" /Fd"OBJ\X64\DEBUG\FRAMEWORK_EGC\VC141.PDB" /Gd /TP /FC C:\USERS\ESTERA\DOWNLOADS\FRAMEWORK-EGC-MASTER\SOURCE\LABORATOARE\LABORATOR7\LABORATOR7.CPP
^C:\USERS\ESTERA\DOWNLOADS\FRAMEWORK-EGC-MASTER\SOURCE\LABORATOARE\LABORATOR8\LABORATOR8.CPP
/c /Zi /JMC /nologo /W3 /WX- /diagnostics:classic /sdl /Od /D _CRT_SECURE_NO_WARNINGS /D _DEBUG /D _CONSOLE /D _UNICODE /D UNICODE /Gm- /EHsc /RTC1 /MDd /GS /fp:precise /Zc:wchar_t /Zc:forScope /Zc:inline /Fo"OBJ\X64\DEBUG\FRAMEWORK_EGC\\" /Fd"OBJ\X64\DEBUG\FRAMEWORK_EGC\VC141.PDB" /Gd /TP /FC C:\USERS\ESTERA\DOWNLOADS\FRAMEWORK-EGC-MASTER\SOURCE\LABORATOARE\LABORATOR8\LABORATOR8.CPP
^C:\USERS\ESTERA\DOWNLOADS\FRAMEWORK-EGC-MASTER\SOURCE\MAIN.CPP
/c /Zi /JMC /nologo /W3 /WX- /diagnostics:classic /sdl /Od /D _CRT_SECURE_NO_WARNINGS /D _DEBUG /D _CONSOLE /D _UNICODE /D UNICODE /Gm- /EHsc /RTC1 /MDd /GS /fp:precise /Zc:wchar_t /Zc:forScope /Zc:inline /Fo"OBJ\X64\DEBUG\FRAMEWORK_EGC\\" /Fd"OBJ\X64\DEBUG\FRAMEWORK_EGC\VC141.PDB" /Gd /TP /FC C:\USERS\ESTERA\DOWNLOADS\FRAMEWORK-EGC-MASTER\SOURCE\MAIN.CPP
^C:\USERS\ESTERA\DOWNLOADS\FRAMEWORK-EGC-MASTER\SOURCE\INCLUDE\GL.CPP
/c /Zi /JMC /nologo /W3 /WX- /diagnostics:classic /sdl /Od /D _CRT_SECURE_NO_WARNINGS /D _DEBUG /D _CONSOLE /D _UNICODE /D UNICODE /Gm- /EHsc /RTC1 /MDd /GS /fp:precise /Zc:wchar_t /Zc:forScope /Zc:inline /Fo"OBJ\X64\DEBUG\FRAMEWORK_EGC\\" /Fd"OBJ\X64\DEBUG\FRAMEWORK_EGC\VC141.PDB" /Gd /TP /FC C:\USERS\ESTERA\DOWNLOADS\FRAMEWORK-EGC-MASTER\SOURCE\INCLUDE\GL.CPP
^C:\USERS\ESTERA\DOWNLOADS\FRAMEWORK-EGC-MASTER\SOURCE\LABORATOARE\LABORATOR9\LABORATOR9.CPP
/c /Zi /JMC /nologo /W3 /WX- /diagnostics:classic /sdl /Od /D _CRT_SECURE_NO_WARNINGS /D _DEBUG /D _CONSOLE /D _UNICODE /D UNICODE /Gm- /EHsc /RTC1 /MDd /GS /fp:precise /Zc:wchar_t /Zc:forScope /Zc:inline /Fo"OBJ\X64\DEBUG\FRAMEWORK_EGC\\" /Fd"OBJ\X64\DEBUG\FRAMEWORK_EGC\VC141.PDB" /Gd /TP /FC C:\USERS\ESTERA\DOWNLOADS\FRAMEWORK-EGC-MASTER\SOURCE\LABORATOARE\LABORATOR9\LABORATOR9.CPP
