^C:\USERS\ESTERA\DOWNLOADS\FRAMEWORK-EGC-MASTER\VISUAL STUDIO\OBJ\X64\DEBUG\FRAMEWORK_EGC\CAMERAINPUT.OBJ|C:\USERS\ESTERA\DOWNLOADS\FRAMEWORK-EGC-MASTER\VISUAL STUDIO\OBJ\X64\DEBUG\FRAMEWORK_EGC\ENGINE.OBJ|C:\USERS\ESTERA\DOWNLOADS\FRAMEWORK-EGC-MASTER\VISUAL STUDIO\OBJ\X64\DEBUG\FRAMEWORK_EGC\GL.OBJ|C:\USERS\ESTERA\DOWNLOADS\FRAMEWORK-EGC-MASTER\VISUAL STUDIO\OBJ\X64\DEBUG\FRAMEWORK_EGC\GPUBUFFERS.OBJ|C:\USERS\ESTERA\DOWNLOADS\FRAMEWORK-EGC-MASTER\VISUAL STUDIO\OBJ\X64\DEBUG\FRAMEWORK_EGC\INPUTCONTROLLER.OBJ|C:\USERS\ESTERA\DOWNLOADS\FRAMEWORK-EGC-MASTER\VISUAL STUDIO\OBJ\X64\DEBUG\FRAMEWORK_EGC\LABORATOR1.OBJ|C:\USERS\ESTERA\DOWNLOADS\FRAMEWORK-EGC-MASTER\VISUAL STUDIO\OBJ\X64\DEBUG\FRAMEWORK_EGC\LABORATOR2.OBJ|C:\USERS\ESTERA\DOWNLOADS\FRAMEWORK-EGC-MASTER\VISUAL STUDIO\OBJ\X64\DEBUG\FRAMEWORK_EGC\LABORATOR3.OBJ|C:\USERS\ESTERA\DOWNLOADS\FRAMEWORK-EGC-MASTER\VISUAL STUDIO\OBJ\X64\DEBUG\FRAMEWORK_EGC\LABORATOR3_VIS2D.OBJ|C:\USERS\ESTERA\DOWNLOADS\FRAMEWORK-EGC-MASTER\VISUAL STUDIO\OBJ\X64\DEBUG\FRAMEWORK_EGC\LABORATOR4.OBJ|C:\USERS\ESTERA\DOWNLOADS\FRAMEWORK-EGC-MASTER\VISUAL STUDIO\OBJ\X64\DEBUG\FRAMEWORK_EGC\LABORATOR5.OBJ|C:\USERS\ESTERA\DOWNLOADS\FRAMEWORK-EGC-MASTER\VISUAL STUDIO\OBJ\X64\DEBUG\FRAMEWORK_EGC\LABORATOR6.OBJ|C:\USERS\ESTERA\DOWNLOADS\FRAMEWORK-EGC-MASTER\VISUAL STUDIO\OBJ\X64\DEBUG\FRAMEWORK_EGC\LABORATOR7.OBJ|C:\USERS\ESTERA\DOWNLOADS\FRAMEWORK-EGC-MASTER\VISUAL STUDIO\OBJ\X64\DEBUG\FRAMEWORK_EGC\LABORATOR8.OBJ|C:\USERS\ESTERA\DOWNLOADS\FRAMEWORK-EGC-MASTER\VISUAL STUDIO\OBJ\X64\DEBUG\FRAMEWORK_EGC\LABORATOR9.OBJ|C:\USERS\ESTERA\DOWNLOADS\FRAMEWORK-EGC-MASTER\VISUAL STUDIO\OBJ\X64\DEBUG\FRAMEWORK_EGC\MAIN.OBJ|C:\USERS\ESTERA\DOWNLOADS\FRAMEWORK-EGC-MASTER\VISUAL STUDIO\OBJ\X64\DEBUG\FRAMEWORK_EGC\MESH.OBJ|C:\USERS\ESTERA\DOWNLOADS\FRAMEWORK-EGC-MASTER\VISUAL STUDIO\OBJ\X64\DEBUG\FRAMEWORK_EGC\OBJECT2D.OBJ|C:\USERS\ESTERA\DOWNLOADS\FRAMEWORK-EGC-MASTER\VISUAL STUDIO\OBJ\X64\DEBUG\FRAMEWORK_EGC\SCENEINPUT.OBJ|C:\USERS\ESTERA\DOWNLOADS\FRAMEWORK-EGC-MASTER\VISUAL STUDIO\OBJ\X64\DEBUG\FRAMEWORK_EGC\SHADER.OBJ|C:\USERS\ESTERA\DOWNLOADS\FRAMEWORK-EGC-MASTER\VISUAL STUDIO\OBJ\X64\DEBUG\FRAMEWORK_EGC\SIMPLESCENE.OBJ|C:\USERS\ESTERA\DOWNLOADS\FRAMEWORK-EGC-MASTER\VISUAL STUDIO\OBJ\X64\DEBUG\FRAMEWORK_EGC\TEXTURE2D.OBJ|C:\USERS\ESTERA\DOWNLOADS\FRAMEWORK-EGC-MASTER\VISUAL STUDIO\OBJ\X64\DEBUG\FRAMEWORK_EGC\TEXTUREMANAGER.OBJ|C:\USERS\ESTERA\DOWNLOADS\FRAMEWORK-EGC-MASTER\VISUAL STUDIO\OBJ\X64\DEBUG\FRAMEWORK_EGC\WINDOWCALLBACKS.OBJ|C:\USERS\ESTERA\DOWNLOADS\FRAMEWORK-EGC-MASTER\VISUAL STUDIO\OBJ\X64\DEBUG\FRAMEWORK_EGC\WINDOWOBJECT.OBJ|C:\USERS\ESTERA\DOWNLOADS\FRAMEWORK-EGC-MASTER\VISUAL STUDIO\OBJ\X64\DEBUG\FRAMEWORK_EGC\WORLD.OBJ
C:\USERS\ESTERA\DOWNLOADS\FRAMEWORK-EGC-MASTER\LIBS\ENGINE\X64\DEBUG\COMPONENTS.LIB
C:\USERS\ESTERA\DOWNLOADS\FRAMEWORK-EGC-MASTER\LIBS\ASSIMP\X64\DEBUG\ASSIMP.LIB
C:\USERS\ESTERA\DOWNLOADS\FRAMEWORK-EGC-MASTER\LIBS\GLFW\X64\DEBUG\GLFW3DLL.LIB
C:\USERS\ESTERA\DOWNLOADS\FRAMEWORK-EGC-MASTER\LIBS\GL\X64\RELEASE\GLEW32.LIB
C:\PROGRAM FILES (X86)\WINDOWS KITS\10\LIB\10.0.17134.0\UM\X64\OPENGL32.LIB
C:\PROGRAM FILES (X86)\WINDOWS KITS\10\LIB\10.0.17134.0\UM\X64\KERNEL32.LIB
C:\PROGRAM FILES (X86)\WINDOWS KITS\10\LIB\10.0.17134.0\UM\X64\USER32.LIB
C:\PROGRAM FILES (X86)\WINDOWS KITS\10\LIB\10.0.17134.0\UM\X64\GDI32.LIB
C:\PROGRAM FILES (X86)\WINDOWS KITS\10\LIB\10.0.17134.0\UM\X64\WINSPOOL.LIB
C:\PROGRAM FILES (X86)\WINDOWS KITS\10\LIB\10.0.17134.0\UM\X64\COMDLG32.LIB
C:\PROGRAM FILES (X86)\WINDOWS KITS\10\LIB\10.0.17134.0\UM\X64\ADVAPI32.LIB
C:\PROGRAM FILES (X86)\WINDOWS KITS\10\LIB\10.0.17134.0\UM\X64\SHELL32.LIB
C:\PROGRAM FILES (X86)\WINDOWS KITS\10\LIB\10.0.17134.0\UM\X64\OLE32.LIB
C:\PROGRAM FILES (X86)\WINDOWS KITS\10\LIB\10.0.17134.0\UM\X64\OLEAUT32.LIB
C:\PROGRAM FILES (X86)\WINDOWS KITS\10\LIB\10.0.17134.0\UM\X64\UUID.LIB
C:\PROGRAM FILES (X86)\WINDOWS KITS\10\LIB\10.0.17134.0\UM\X64\ODBC32.LIB
C:\PROGRAM FILES (X86)\WINDOWS KITS\10\LIB\10.0.17134.0\UM\X64\ODBCCP32.LIB
C:\USERS\ESTERA\DOWNLOADS\FRAMEWORK-EGC-MASTER\VISUAL STUDIO\OBJ\X64\DEBUG\FRAMEWORK_EGC\CAMERAINPUT.OBJ
C:\USERS\ESTERA\DOWNLOADS\FRAMEWORK-EGC-MASTER\VISUAL STUDIO\OBJ\X64\DEBUG\FRAMEWORK_EGC\SCENEINPUT.OBJ
C:\USERS\ESTERA\DOWNLOADS\FRAMEWORK-EGC-MASTER\VISUAL STUDIO\OBJ\X64\DEBUG\FRAMEWORK_EGC\SIMPLESCENE.OBJ
C:\USERS\ESTERA\DOWNLOADS\FRAMEWORK-EGC-MASTER\VISUAL STUDIO\OBJ\X64\DEBUG\FRAMEWORK_EGC\ENGINE.OBJ
C:\USERS\ESTERA\DOWNLOADS\FRAMEWORK-EGC-MASTER\VISUAL STUDIO\OBJ\X64\DEBUG\FRAMEWORK_EGC\GPUBUFFERS.OBJ
C:\USERS\ESTERA\DOWNLOADS\FRAMEWORK-EGC-MASTER\VISUAL STUDIO\OBJ\X64\DEBUG\FRAMEWORK_EGC\MESH.OBJ
C:\USERS\ESTERA\DOWNLOADS\FRAMEWORK-EGC-MASTER\VISUAL STUDIO\OBJ\X64\DEBUG\FRAMEWORK_EGC\SHADER.OBJ
C:\USERS\ESTERA\DOWNLOADS\FRAMEWORK-EGC-MASTER\VISUAL STUDIO\OBJ\X64\DEBUG\FRAMEWORK_EGC\TEXTURE2D.OBJ
C:\USERS\ESTERA\DOWNLOADS\FRAMEWORK-EGC-MASTER\VISUAL STUDIO\OBJ\X64\DEBUG\FRAMEWORK_EGC\TEXTUREMANAGER.OBJ
C:\USERS\ESTERA\DOWNLOADS\FRAMEWORK-EGC-MASTER\VISUAL STUDIO\OBJ\X64\DEBUG\FRAMEWORK_EGC\INPUTCONTROLLER.OBJ
C:\USERS\ESTERA\DOWNLOADS\FRAMEWORK-EGC-MASTER\VISUAL STUDIO\OBJ\X64\DEBUG\FRAMEWORK_EGC\WINDOWCALLBACKS.OBJ
C:\USERS\ESTERA\DOWNLOADS\FRAMEWORK-EGC-MASTER\VISUAL STUDIO\OBJ\X64\DEBUG\FRAMEWORK_EGC\WINDOWOBJECT.OBJ
C:\USERS\ESTERA\DOWNLOADS\FRAMEWORK-EGC-MASTER\VISUAL STUDIO\OBJ\X64\DEBUG\FRAMEWORK_EGC\WORLD.OBJ
C:\USERS\ESTERA\DOWNLOADS\FRAMEWORK-EGC-MASTER\VISUAL STUDIO\OBJ\X64\DEBUG\FRAMEWORK_EGC\GL.OBJ
C:\USERS\ESTERA\DOWNLOADS\FRAMEWORK-EGC-MASTER\VISUAL STUDIO\OBJ\X64\DEBUG\FRAMEWORK_EGC\LABORATOR1.OBJ
C:\USERS\ESTERA\DOWNLOADS\FRAMEWORK-EGC-MASTER\VISUAL STUDIO\OBJ\X64\DEBUG\FRAMEWORK_EGC\LABORATOR2.OBJ
C:\USERS\ESTERA\DOWNLOADS\FRAMEWORK-EGC-MASTER\VISUAL STUDIO\OBJ\X64\DEBUG\FRAMEWORK_EGC\LABORATOR3.OBJ
C:\USERS\ESTERA\DOWNLOADS\FRAMEWORK-EGC-MASTER\VISUAL STUDIO\OBJ\X64\DEBUG\FRAMEWORK_EGC\LABORATOR3_VIS2D.OBJ
C:\USERS\ESTERA\DOWNLOADS\FRAMEWORK-EGC-MASTER\VISUAL STUDIO\OBJ\X64\DEBUG\FRAMEWORK_EGC\OBJECT2D.OBJ
C:\USERS\ESTERA\DOWNLOADS\FRAMEWORK-EGC-MASTER\VISUAL STUDIO\OBJ\X64\DEBUG\FRAMEWORK_EGC\LABORATOR4.OBJ
C:\USERS\ESTERA\DOWNLOADS\FRAMEWORK-EGC-MASTER\VISUAL STUDIO\OBJ\X64\DEBUG\FRAMEWORK_EGC\LABORATOR5.OBJ
C:\USERS\ESTERA\DOWNLOADS\FRAMEWORK-EGC-MASTER\VISUAL STUDIO\OBJ\X64\DEBUG\FRAMEWORK_EGC\LABORATOR6.OBJ
C:\USERS\ESTERA\DOWNLOADS\FRAMEWORK-EGC-MASTER\VISUAL STUDIO\OBJ\X64\DEBUG\FRAMEWORK_EGC\LABORATOR7.OBJ
C:\USERS\ESTERA\DOWNLOADS\FRAMEWORK-EGC-MASTER\VISUAL STUDIO\OBJ\X64\DEBUG\FRAMEWORK_EGC\LABORATOR8.OBJ
C:\USERS\ESTERA\DOWNLOADS\FRAMEWORK-EGC-MASTER\VISUAL STUDIO\OBJ\X64\DEBUG\FRAMEWORK_EGC\LABORATOR9.OBJ
C:\USERS\ESTERA\DOWNLOADS\FRAMEWORK-EGC-MASTER\VISUAL STUDIO\OBJ\X64\DEBUG\FRAMEWORK_EGC\MAIN.OBJ
C:\WINDOWS\SYSTEM32\TZRES.DLL
C:\WINDOWS\GLOBALIZATION\SORTING\SORTDEFAULT.NLS
C:\PROGRAM FILES (X86)\MICROSOFT VISUAL STUDIO\2017\COMMUNITY\VC\TOOLS\MSVC\14.15.26726\LIB\X64\MSVCPRTD.LIB
C:\PROGRAM FILES (X86)\MICROSOFT VISUAL STUDIO\2017\COMMUNITY\VC\TOOLS\MSVC\14.15.26726\LIB\X64\MSVCRTD.LIB
C:\PROGRAM FILES (X86)\MICROSOFT VISUAL STUDIO\2017\COMMUNITY\VC\TOOLS\MSVC\14.15.26726\LIB\X64\OLDNAMES.LIB
C:\PROGRAM FILES (X86)\MICROSOFT VISUAL STUDIO\2017\COMMUNITY\VC\TOOLS\MSVC\14.15.26726\LIB\X64\VCRUNTIMED.LIB
C:\PROGRAM FILES (X86)\WINDOWS KITS\10\LIB\10.0.17134.0\UCRT\X64\UCRTD.LIB
